lab6
…
There were issues with some computations   A: x30   B: x1
There were issues with some computations   A: x30   B: x17   C: x43

✔ 2 of 3 tuning:     recipe_XGBoost (4.7s)
i 3 of 3 tuning:     recipe_Neural Network
✔ 3 of 3 tuning:     recipe_Neural Network (22.7s)

collect_metrics(model_fit)

# A tibble: 90 × 9
   wflow_id        .config preproc model .metric .estimator   mean     n std_err
   <chr>           <chr>   <chr>   <chr> <chr>   <chr>       <dbl> <int>   <dbl>
 1 recipe_Random … Prepro… recipe  rand… mae     standard   0.0841     1      NA
 2 recipe_Random … Prepro… recipe  rand… rmse    standard   0.141      1      NA
 3 recipe_Random … Prepro… recipe  rand… rsq     standard   0.945      1      NA
 4 recipe_Random … Prepro… recipe  rand… mae     standard   0.102      1      NA
 5 recipe_Random … Prepro… recipe  rand… rmse    standard   0.164      1      NA
 6 recipe_Random … Prepro… recipe  rand… rsq     standard   0.928      1      NA
 7 recipe_Random … Prepro… recipe  rand… mae     standard   0.0445     1      NA
 8 recipe_Random … Prepro… recipe  rand… rmse    standard   0.0832     1      NA
 9 recipe_Random … Prepro… recipe  rand… rsq     standard   0.979      1      NA
10 recipe_Random … Prepro… recipe  rand… mae     standard   0.0585     1      NA
# ℹ 80 more rows
…
rank_results(model_fit)

# A tibble: 90 × 9
   wflow_id       .config .metric    mean std_err     n preprocessor model  rank
   <chr>          <chr>   <chr>     <dbl>   <dbl> <int> <chr>        <chr> <int>
 1 recipe_Neural… Prepro… mae     0.00733 8.26e-4    10 recipe       bag_…     1
 2 recipe_Neural… Prepro… rmse    0.0198  4.57e-3    10 recipe       bag_…     1
 3 recipe_Neural… Prepro… rsq     0.998   6.53e-4    10 recipe       bag_…     1
 4 recipe_Neural… Prepro… mae     0.00954 8.39e-4    10 recipe       bag_…     2
 5 recipe_Neural… Prepro… rmse    0.0214  5.21e-3    10 recipe       bag_…     2
 6 recipe_Neural… Prepro… rsq     0.998   8.07e-4    10 recipe       bag_…     2
 7 recipe_Neural… Prepro… mae     0.00920 8.30e-4    10 recipe       bag_…     3
 8 recipe_Neural… Prepro… rmse    0.0216  4.03e-3    10 recipe       bag_…     3
 9 recipe_Neural… Prepro… rsq     0.998   5.53e-4    10 recipe       bag_…     3
10 recipe_Neural… Prepro… mae     0.00913 1.25e-3    10 recipe       bag_…     4
# ℹ 80 more rows

Evaluation

library(tune)

ranked <- rank_results(model_fit)
print(ranked)

# A tibble: 90 × 9
   wflow_id       .config .metric    mean std_err     n preprocessor model  rank
   <chr>          <chr>   <chr>     <dbl>   <dbl> <int> <chr>        <chr> <int>
 1 recipe_Neural… Prepro… mae     0.00733 8.26e-4    10 recipe       bag_…     1
 2 recipe_Neural… Prepro… rmse    0.0198  4.57e-3    10 recipe       bag_…     1
 3 recipe_Neural… Prepro… rsq     0.998   6.53e-4    10 recipe       bag_…     1
 4 recipe_Neural… Prepro… mae     0.00954 8.39e-4    10 recipe       bag_…     2
 5 recipe_Neural… Prepro… rmse    0.0214  5.21e-3    10 recipe       bag_…     2
 6 recipe_Neural… Prepro… rsq     0.998   8.07e-4    10 recipe       bag_…     2
 7 recipe_Neural… Prepro… mae     0.00920 8.30e-4    10 recipe       bag_…     3
 8 recipe_Neural… Prepro… rmse    0.0216  4.03e-3    10 recipe       bag_…     3
 9 recipe_Neural… Prepro… rsq     0.998   5.53e-4    10 recipe       bag_…     3
10 recipe_Neural… Prepro… mae     0.00913 1.25e-3    10 recipe       bag_…     4
# ℹ 80 more rows
…
